aniso8601==9.0.1
certifi==2021.5.30
chardet==4.0.0
click==8.0.1
colorama==0.4.4
Flask==2.0.1
Flask-RESTful==0.3.9
greenlet==1.1.0
idna==2.10
itsdangerous==2.0.1
Jinja2==3.0.1
MarkupSafe==2.0.1
pathlib==1.0.1
psycopg2==2.8.6
pytz==2021.1
requests==2.25.1
six==1.16.0
SQLAlchemy==1.4.18
urllib3==1.26.5
websockets==9.1
Werkzeug==2.0.1